%%Excelsior JET v11.0 project file

-jpiiproject={Root_Directory}\Teletracker32bit.jpn

-compilewithfixedheap-
-genstackalloc+
-genstacktrace-
-global-
-gui+
-ignoreclassduplication+
-ignorememberabsence+
-inline+
-jetcpenablemanualsettings+
-multiapp-
-splashgetfrommanifest-

-apptype=Plain
-classabsence=HANDLE
-compilerheap=1744830464
-inlinelimit=100
-inlinetolimit=1000
-javacommandline:=java -jar teletracker.jar
-jetcplastpage:=PageCompile
-jetrt=Desktop
-jetvmprop=-Djet.gc.heaplimit:0 -Djet.stack.trace
-main=com/telelogx/teletracker/core/StartUp
-outputdir={Root_Directory}
-outputname=MonitoringTeletracker
-saprofmode=JETCPONLY
-saproftimeout=20
-stacklimit=900000




!classpathentry {Root_Directory}/teletracker.jar
	-pack=all
  -protect=nomatter
  -optimize=autodetect
!end
!module {Root_Directory}/Monitoring_48x48.ico
